// Jest Snapshot v1, https://goo.gl/fbAQLP

exports[`<NotFoundPage /> should match snapshot 1`] = `
Array [
  <header
    className="NavBar__Wrapper-sc-1ecnmn-0 gFvxzx"
  >
    <div
      className="PageWrapper-kjz6xu-0 dNbbmB"
    >
      <div
        className="Logo__Wrapper-sc-6r9ujb-0 hoYEvs"
      >
        <div
          className="Logo__Title-sc-6r9ujb-1 jMsoBO"
        >
          React Boilerplate
        </div>
        <div
          className="Logo__Description-sc-6r9ujb-2 fjnosI"
        >
          Create React App Template
        </div>
      </div>
      <nav
        className="Nav__Wrapper-sc-1re0p7h-0 eKEKif"
      >
        <a
          className="Nav__Item-sc-1re0p7h-1 hEDQmr"
          href="https://cansahin.gitbook.io/react-boilerplate-cra-template/"
          rel="noopener noreferrer"
          target="_blank"
          title="Documentation Page"
        >
          <svg>
            documentation-icon.svg
          </svg>
          Documentation
        </a>
        <a
          className="Nav__Item-sc-1re0p7h-1 hEDQmr"
          href="https://github.com/react-boilerplate/react-boilerplate-cra-template"
          rel="noopener noreferrer"
          target="_blank"
          title="Github Page"
        >
          <svg>
            github-icon.svg
          </svg>
          Github
        </a>
      </nav>
    </div>
  </header>,
  <div
    className="NotFoundPage__Wrapper-sc-1dgt7bf-0 hhuKGn"
  >
    <div
      className="NotFoundPage__Title-sc-1dgt7bf-1 dsXUKK"
    >
      4
      <span
        aria-label="Crying Face"
        role="img"
      >
        😢
      </span>
      4
    </div>
    <p
      className="P-sc-1kngd7j-0 jiowdp"
    >
      Page not found.
    </p>
    <a
      className="Link-sc-1fxt32a-0 iszzzl"
      href="/"
      onClick={[Function]}
    >
      Return to Home Page
    </a>
  </div>,
]
`;
